{
	"info": {
		"_postman_id": "b7340ffd-40a1-4e75-9dd2-bf68436d27b4",
		"name": "accelerate it - api examples",
		"schema": "https://schema.getpostman.com/json/collection/v2.1.0/collection.json"
	},
	"item": [
		{
			"name": "currency exchange",
			"item": [
				{
					"name": "latest rates",
					"request": {
						"method": "GET",
						"header": [],
						"url": {
							"raw": "http://api.exchangeratesapi.io/latest?access_key=9efeea196e2fe6298314ad06dcf86c19",
							"protocol": "http",
							"host": [
								"api",
								"exchangeratesapi",
								"io"
							],
							"path": [
								"latest"
							],
							"query": [
								{
									"key": "access_key",
									"value": "9efeea196e2fe6298314ad06dcf86c19"
								}
							]
						}
					},
					"response": []
				}
			]
		},
		{
			"name": "swiss trains",
			"item": [
				{
					"name": "get connection",
					"request": {
						"method": "GET",
						"header": [],
						"url": {
							"raw": "http://transport.opendata.ch/v1/connections?from=Lausanne&to=Genève&date=2021-11-25&time=9:00",
							"protocol": "http",
							"host": [
								"transport",
								"opendata",
								"ch"
							],
							"path": [
								"v1",
								"connections"
							],
							"query": [
								{
									"key": "from",
									"value": "Lausanne"
								},
								{
									"key": "to",
									"value": "Genève"
								},
								{
									"key": "date",
									"value": "2021-11-25"
								},
								{
									"key": "time",
									"value": "9:00"
								}
							]
						}
					},
					"response": []
				}
			]
		}
	]
}