{
	"info": {
		"_postman_id": "e6b7b59f-a0c5-4084-ac1f-e70672a56984",
		"name": "minipim Azure",
		"schema": "https://schema.getpostman.com/json/collection/v2.1.0/collection.json"
	},
	"item": [
		{
			"name": "list ingredients",
			"request": {
				"method": "GET",
				"header": [],
				"url": {
					"raw": "{{URL_ROOT_AZURE}}/ingredients",
					"host": [
						"{{URL_ROOT_AZURE}}"
					],
					"path": [
						"ingredients"
					]
				}
			},
			"response": []
		},
		{
			"name": "list products",
			"request": {
				"method": "GET",
				"header": [],
				"url": {
					"raw": "{{URL_ROOT_AZURE}}/products",
					"host": [
						"{{URL_ROOT_AZURE}}"
					],
					"path": [
						"products"
					]
				}
			},
			"response": []
		},
		{
			"name": "get one product",
			"request": {
				"method": "GET",
				"header": [],
				"url": {
					"raw": "{{URL_ROOT_AZURE}}/products/27OR050I18",
					"host": [
						"{{URL_ROOT_AZURE}}"
					],
					"path": [
						"products",
						"27OR050I18"
					]
				}
			},
			"response": []
		},
		{
			"name": "list products with formula contains",
			"request": {
				"method": "GET",
				"header": [],
				"url": {
					"raw": "{{URL_ROOT_AZURE}}/products?with_formula_contains=UV FILTERS",
					"host": [
						"{{URL_ROOT_AZURE}}"
					],
					"path": [
						"products"
					],
					"query": [
						{
							"key": "with_formula_contains",
							"value": "UV FILTERS"
						}
					]
				}
			},
			"response": []
		}
	],
	"event": [
		{
			"listen": "prerequest",
			"script": {
				"type": "text/javascript",
				"exec": [
					""
				]
			}
		},
		{
			"listen": "test",
			"script": {
				"type": "text/javascript",
				"exec": [
					""
				]
			}
		}
	],
	"variable": [
		{
			"key": "URL_ROOT_AZURE",
			"value": "https://minipim.azurewebsites.net"
		}
	]
}